{
  "page": {
    "number": 0,
    "size": 10,
    "totalElements": 1103,
    "totalPages": 111
  },
  "content": [
    {
      "cloudletType": "ER",
      "createdBy": "jsmith",
      "createdDate": "2020-10-01T12:35:22.500Z",
      "description": "ER policy for static assets",
      "groupId": 5,
      "id": 1001,
      "modifiedBy": "jperez",
      "modifiedDate": "2020-10-01T12:35:22.500Z",
      "name": "static_assets_redirector",
      "policyType": "SHARED",
      "currentActivations": {
        "production": {
          "latest": {
            "createdBy": "jsmith",
            "createdDate": "2020-10-01T12:35:24.520Z",
            "finishDate": "2020-10-01T12:35:25.962Z",
            "id": 300001,
            "network": "PRODUCTION",
            "operation": "ACTIVATION",
            "policyId": 1001,
            "status": "SUCCESS",
            "policyVersion": 1,
            "links": [
              {
                "href": "/cloudlets/v3/policies/1001/activations/300001",
                "rel": "self"
              }
            ]
          },
          "effective": {
            "createdBy": "szhang",
            "createdDate": "2020-10-01T12:35:24.520Z",
            "finishDate": "2020-10-01T12:35:25.962Z",
            "id": 300001,
            "network": "PRODUCTION",
            "operation": "ACTIVATION",
            "policyId": 1001,
            "status": "SUCCESS",
            "policyVersion": 1,
            "links": [
              {
                "href": "/cloudlets/v3/policies/1001/activations/300001",
                "rel": "self"
              }
            ]
          }
        },
        "staging": {
          "effective": null,
          "latest": null
        }
      },
      "links": [
        {
          "href": "/cloudlets/v3/policies/1001",
          "rel": "self"
        }
      ]
    }
  ],
  "links": [
    {
      "href": "/cloudlets/v3/policies?page=0&size=10",
      "rel": "first"
    },
    {
      "href": "/cloudlets/v3/policies?page=0&size=10",
      "rel": "self"
    },
    {
      "href": "/cloudlets/v3/policies?page=1&size=10",
      "rel": "next"
    },
    {
      "href": "/cloudlets/v3/policies?page=110&size=10",
      "rel": "last"
    }
  ]
}