{
  "meta": {
    "limit": 20,
    "next": "?limit=20&offset=20",
    "offset": 0,
    "previous": null,
    "total_count": 175
  },
  "objects": [
    {
      "description": "",
      "name": "",
      "status": 1,
      "uuid_url": "7RBSRcmaQqq0YEUClWqL_w",
      "group": {
        "group_uuid_url": "lDezLHf5QaeFYJyaWOHqAw",
        "name": "Domain Users"
      },
      "resource_uri": {
        "groups": "/api/v1/groups/lDezLHf5QaeFYJyaWOHqAw",
        "href": "/api/v1/groupmembership/7RBSRcmaQqq0YEUClWqL_w",
        "users": "/api/v1/users/Cjy9Gxw2RpaKh8NrMo8_Lw"
      },
      "user": {
        "created_at": "2018-06-29T18:11:29.074899",
        "display_name": "",
        "email": "",
        "first_name": "Zach",
        "last_name": "Doe",
        "user_uuid_url": "Cjy9Gxw2RpaKh8NrMo8_Lw",
        "username": "user12@eaaprod.daredevils.com",
        "normalized_attributes": {
          "eaa.userName": "sqauser12@eaaprod.daredevils.com",
          "user.countryCode": 0,
          "user.email": "",
          "user.firstName": "zach",
          "user.lastName": "smith",
          "user.netbios": "EAA_lab",
          "user.persistentId": "b232a4d4-50ec-4338-a4e0-296aca4c391f",
          "user.samAccountName": "sqauser12",
          "user.userName": "sqa_zsmith",
          "user.userPrincipleName": "sqa_zsmith@eaalab.daredevils.com",
          "eaa.demo": "",
          "eaa.test": "",
          "user.phoneNumber": "",
          "user.groups": []
        }
      }
    }
  ]
}