{
  "meta": {
    "limit": 2,
    "next": "?expand=true&limit=2&offset=4",
    "offset": 2,
    "previous": "?expand=true&limit=2&offset=0",
    "total_count": 114764
  },
  "objects": [
    {
      "description": null,
      "name": null,
      "status": 1,
      "uuid_url": "xdJdjiWLRb26jSUkI0-qPQ",
      "group": {
        "group_uuid_url": "GYbYGhfjQKqSzWIMK5VHcw",
        "name": "1k_users_group"
      },
      "resource_uri": {
        "groups": "/api/v1/groups/GYbYGhfjQKqSzWIMK5VHcw",
        "href": "/api/v1/groupmembership/xdJdjiWLRb26jSUkI0-qPQ",
        "users": "/api/v1/users/k8bFfDTiQluq4nX7GOdgsg"
      },
      "user": {
        "created_at": "2020-03-18T05:36:58.666741",
        "display_name": "ASmith",
        "email": "asmith@eaaprod.daredevils.com",
        "first_name": "alice",
        "last_name": "smith",
        "user_uuid_url": "k8bFfDTiQluq4nX7GOdgsg",
        "username": "mrossi",
        "normalized_attributes": {
          "custom.employeeType": "",
          "custom.6attribute": "asmith@eaa.daredevils.com",
          "eaa.userName": "asmith",
          "user.countryCode": 0,
          "user.email": "asmith@eaa.daredevils.com",
          "user.firstName": "alice",
          "user.lastName": "smith",
          "user.netbios": "EAA",
          "user.persistentId": "cddc0d21-fdc9-4f62-a5d6-52285859f0a3",
          "user.samAccountName": "asmith_HR",
          "user.userPrincipleName": "2m_user_441@eaa.daredevils.com",
          "user.groups": [
            "CN=1.5m_users_group,CN=Users,DC=eaa,DC=daredevils,DC=com",
            "CN=2m_users_group,CN=Users,DC=eaa,DC=daredevils,DC=com",
            "CN=30k_users_group,CN=Users,DC=eaaprod,DC=daredevils,DC=com"
          ],
          "user.phoneNumber": []
        }
      }
    },
    {
      "description": null,
      "name": null,
      "status": 1,
      "uuid_url": "gn-9VpqlSNqK9sTqoK1LfQ",
      "group": {
        "group_uuid_url": "GYbYGhfjQKqSzWIMK5VHcw",
        "name": "1k_users_group"
      },
      "resource_uri": {
        "groups": "/api/v1/groups/GYbYGhfjQKqSzWIMK5VHcw",
        "href": "/api/v1/groupmembership/gn-9VpqlSNqK9sTqoK1LfQ",
        "users": "/api/v1/users/DPptf5lxSvOtZ0t1jwOQ3A"
      },
      "user": {
        "created_at": "2020-03-18T05:36:58.666925",
        "display_name": "",
        "email": "example@eaaprod.daredevils.com",
        "first_name": "Bob",
        "last_name": "Jones",
        "user_uuid_url": "DPptf5lxSvOtZ0t1jwOQ3A",
        "username": "jsmith",
        "normalized_attributes": {
          "custom.employeeType": "FTE",
          "custom.emailattribute": "example@eaaprod.daredevils.com",
          "eaa.userName": "bjones",
          "user.countryCode": 0,
          "user.email": "example@eaaprod.daredevils.com",
          "user.firstName": "Bob",
          "user.lastName": "Jones",
          "user.netbios": "eaaprod",
          "user.persistentId": "927f4527-40de-4798-9772-1762ef4f6a59",
          "user.samAccountName": "bjones_qa",
          "user.userPrincipleName": "bjones2@eaaprod.daredevils.com",
          "user.groups": [
            "CN=100_users_group,CN=Users,DC=eaaprod,DC=daredevils,DC=com",
            "CN=1.3m_users_group,CN=Users,DC=eaaprod,DC=daredevils,DC=com",
            "CN=100k_users_group,CN=Users,DC=eaaprod,DC=daredevils,DC=com"
          ],
          "user.phoneNumber": []
        }
      }
    }
  ]
}