{
  "meta": {
    "limit": 20,
    "next": "?limit=20&offset=20",
    "offset": 0,
    "previous": null,
    "total_count": 209
  },
  "objects": [
    {
      "enable_mfa": "inherit",
      "resource": "appdirectories",
      "uuid_url": "flaeNl3wRfmjzvUBUVJsgw",
      "app": {
        "app_uuid_url": "n4o8-XC2QUq6WMbDjjpl7w",
        "name": "SaaS App"
      },
      "directory": {
        "directory_uuid_url": "DMzkC7IvTkiLiRN6cGWxMw",
        "name": "Cloud Directory"
      },
      "resource_uri": {
        "apps": "/api/v1/apps/n4o8-XC2QUq6WMbDjjpl7w",
        "directories": "/api/v1/directories/DMzkC7IvTkiLiRN6cGWxMw",
        "href": "/api/v1/appdirectories/flaeNl3wRfmjzvUBUVJsgw"
      }
    },
    {
      "enable_mfa": "inherit",
      "resource": "appdirectories",
      "uuid_url": "2Xq3HJhKS9Ke4_BVH57i-Q",
      "app": {
        "app_uuid_url": "DSany6qrSbKwgtks9z8SFQ",
        "name": "Saleforce"
      },
      "directory": {
        "directory_uuid_url": "DMzkC7IvTkiLiRN6cGWxMw",
        "name": "New York"
      },
      "resource_uri": {
        "apps": "/api/v1/apps/DSany6qrSbKwgtks9z8SFQ",
        "directories": "/api/v1/directories/DMzkC7IvTkiLiRN6cGWxMw",
        "href": "/api/v1/appdirectories/2Xq3HJhKS9Ke4_BVH57i-Q"
      }
    }
  ]
}