{
  "meta": {
    "previous": "?limit=2&expand=true&offset=8",
    "total_count": 178,
    "offset": 10,
    "limit": 2,
    "next": "?limit=2&expand=true&offset=10"
  },
  "objects": [
    {
      "auth_type": 1,
      "domain": 1,
      "domain_suffix": "host.akamai-access.com",
      "app_status": 2,
      "popName": "us-pop-1",
      "pop": "LpeAuKXkEeOg_Q7rYYFrWw",
      "origin_host": null,
      "app_type": 2,
      "client_app_mode": 1,
      "app_deployed": true,
      "saml": true,
      "auth_agent": null,
      "rdp_version": "V1",
      "auth_enabled": "true",
      "uuid_url": "ZgpmtAS0ORa2b0jF",
      "app_logo": "https://host.com/customer-logo/app_icon_<uuid_url>",
      "description": "This is the Email Server",
      "app_profile": 1,
      "host": "<uuid_url>.host.akamai-access.com",
      "data_agent": null,
      "orig_tls": "true",
      "origin_port": 443,
      "bookmark_url": "",
      "app_operational": 3,
      "resource": "apps",
      "name": "Primary Email Application",
      "modified_at": "2019-03-28T20:10:22.418270",
      "cert": null,
      "cname": "<uuid_url>.host.akamai-access.com",
      "status": 1,
      "wsfed": false,
      "oidc": false,
      "created_at": "2017-10-09T21:21:27.548211",
      "sites": [
        "skljgoSxoolsooD26Q-qQlGzjYRzuS"
      ],
      "wsfed_settings": [],
      "advanced_settings": {
        "mfa": "inherit",
        "rdp_initial_program": null,
        "hidden_app": "false",
        "force_mfa": "off",
        "login_timeout": "5",
        "remote_spark_audio": "true",
        "sticky_agent": "false",
        "https_sslv3": "false",
        "authenticated_server_conn_limit": "50",
        "idle_conn_step": "10",
        "idle_close_time_seconds": "1200",
        "logout_url": null,
        "keyed_keepalive_enable": "false",
        "idle_conn_floor": "50",
        "cors_origin_list": "unbounded",
        "health_check_http_host_header": "",
        "session_sticky_cookie_maxage": "0",
        "ssh_audit_enabled": "false",
        "app_auth_domain": null,
        "edge_authentication_enabled": "false",
        "sso": "true",
        "preauth_enforce_url": "",
        "remote_spark_mapClipboard": "on",
        "keepalive_enable": "true",
        "health_check_interval": "30000",
        "idle_conn_ceil": "75",
        "proxy_buffer_size_kb": null,
        "forward_ticket_granting_ticket": "false",
        "websocket_enabled": "false",
        "internal_host_port": "0",
        "authenticated_server_request_limit": "100",
        "g2o_nonce": null,
        "server_request_burst": "100",
        "keepalive_connection_pool": "50",
        "keytab": "",
        "saas_enabled": "false",
        "health_check_http_url": "/",
        "cors_max_age": "86400",
        "inject_ajax_javascript": "off",
        "spdy_enabled": "true",
        "health_check_fall": "3",
        "anonymous_server_conn_limit": "50",
        "client_cert_auth": "false",
        "remote_spark_mapPrinter": "true",
        "domain_exception_list": "",
        "idp_idle_expiry": null,
        "kerberos_negotiate_once": "off",
        "proxy_disable_clipboard": "false",
        "external_cookie_domain": null,
        "app_server_read_timeout": "60",
        "load_balancing_metric": "round-robin",
        "keepalive_timeout": "3",
        "app_location": null,
        "health_check_http_version": "1.1",
        "offload_onpremise_traffic": "false",
        "session_sticky": "false",
        "sentry_redirect_401": "off",
        "remote_spark_disk": "LOCALSHARE",
        "refresh_sticky_cookie": "on",
        "ignore_cname_resolution": "false",
        "user_name": null,
        "http_only_cookie": "true",
        "login_url": null,
        "anonymous_server_request_limit": "100",
        "session_sticky_server_cookie": null,
        "request_body_rewrite": "false",
        "sla_object_url": "____spx/iontestpage",
        "pass_phrase": null,
        "edge_cookie_key": "",
        "g2o_key": null,
        "request_parameters": null,
        "wildcard_internal_hostname": "false",
        "logging_enabled": "true",
        "server_cert_validate": "true",
        "rate_limit": "on",
        "rdp_tls1": "false",
        "health_check_timeout": "50000",
        "health_check_rise": "2",
        "g2o_enabled": "false",
        "internal_hostname": "",
        "app_auth": "none",
        "cors_support_credential": "on",
        "cors_header_list": "unbounded",
        "acceleration": "false",
        "remote_spark_mapDisk": "true",
        "hsts_age": "15552000",
        "remote_spark_printer": "LOCALPRINTER",
        "allow_cors": "false",
        "rdp_legacy_mode": "false",
        "cors_method_list": "unbounded",
        "private_key": null,
        "app_cookie_domain": null,
        "service_principle_name": null,
        "app_client_cert_auth": "false",
        "cookie_domain": "",
        "remote_spark_recording": "false",
        "idp_max_expiry": null,
        "wapp_auth": "form",
        "health_check_type": "0",
        "client_cert_user_param": "",
        "rdp_remote_apps": [],
        "custom_headers": []
      },
      "app_category": {
        "name": "Communications",
        "uuid_url": "CNasdlkfjlkasdhftZjKIFA"
      },
      "resource_status": {
        "host_reachable": false,
        "directories_status": 2,
        "origin_host_status": 4,
        "cname_dns_status": 1,
        "data_agent_status": 1,
        "cert_status": 1,
        "host_dns_status": 4,
        "internal_host_status": 1,
        "dialin_server_status": 4,
        "pop_status": 2
      },
      "oidc_settings": {},
      "idp": {
        "idp_id": "aMEgMEgeToipiytpeP1u5kLg",
        "client_cert_auth": "false",
        "client_cert_user_param": "",
        "name": "Pri-SAML-IDP",
        "type": 2
      },
      "resource_uri": {
        "directories": "/api/v1/apps/uuid_url/directories/",
        "sites": "/api/v1/apps/<uuid_url>/sites",
        "pop": "/api/v1/pops/<pop>",
        "href": "/api/v1/apps/<uuid_url>",
        "groups": "/api/v1/apps/<uuid_url>/groups/",
        "services": "/api/v1/apps/<uuid_url>/services/"
      },
      "saml_settings": [
        {
          "sp": {
            "dst_url": "",
            "encr_cert": "-----BEGIN CERTIFICATE-----\n ... \n-----END CERTIFICATE-----",
            "default_relay_state": "",
            "encr_algo": "aes256-cbc",
            "req_verify": false,
            "slo_req_verify": false,
            "slo_bind": "redirect",
            "entity_id": "https://host.net/saml/sp/response",
            "resp_encr": false,
            "req_bind": "redirect",
            "sign_cert": "-----BEGIN CERTIFICATE-----\n ... \n-----END CERTIFICATE-----",
            "logout_bind": "post",
            "slo_url": "",
            "force_auth": true,
            "acs_url": "https://host.net/saml/sp/response",
            "metadata": "<?xml version=\"1.0\"?>\n<md:EntityDescriptor> ... </md:EntityDescriptor>"
          },
          "idp": {
            "self_signed": true,
            "ecp_resp_signature": false,
            "slo_url": "https://host.net/saml/idp/slo",
            "entity_id": "https://host.net/saml/idp/sso",
            "resp_bind": "post",
            "sign_cert": "-----BEGIN CERTIFICATE-----\n ... \n-----END CERTIFICATE-----\n",
            "sign_algo": "SHA1",
            "ecp_enable": false,
            "metadata": "<?xml version=\"1.0\"?>\n<md:EntityDescriptor> ... </md:EntityDescriptor>"
          },
          "subject": {
            "attr_source": "user.email",
            "src": "user.userPrincipleName",
            "fmt": "unspecified"
          },
          "attrmap": [
            {
              "src": "user.firstName",
              "fmt": "unspecified",
              "name": "FirstName",
              "fname": ""
            },
            {
              "src": "user.email",
              "fmt": "basic",
              "name": "Email",
              "fname": ""
            },
            {
              "src": "user.lastName",
              "fmt": "basic",
              "name": "LastName",
              "fname": ""
            }
          ]
        }
      ],
      "servers": [
        {
          "origin_host": "192.0.2.228",
          "orig_tls": true,
          "origin_port": 22,
          "origin_protocol": "ssh"
        }
      ],
      "services": [
        {
          "name": "Acceleration",
          "uuid_url": "YqQlGzjYRzuSX04"
        },
        {
          "name": "Access Control",
          "uuid_url": "RzuSX04c8CECtw15"
        }
      ],
      "agents": [
        {
          "compatible": true,
          "name": "Email-App-Connector",
          "uuid_url": "aldTFght_SfoolsooD26Q"
        },
        {
          "compatible": true,
          "name": "App2-Connector",
          "uuid_url": "askljgoSxmQnkfJ1fozTA"
        }
      ],
      "directories": [
        {
          "user_count": 29584,
          "type": 1,
          "name": "Company-Primary-AD",
          "uuid_url": "_tvruiywwiyipwgvs8rw"
        }
      ]
    },
    {
      "auth_type": 1,
      "domain": 1,
      "domain_suffix": "host.akamai-access.com",
      "app_status": 2,
      "popName": "us-pop-1",
      "pop": "LpeAuKXkEeOg_Q7rYYFrWw",
      "origin_host": null,
      "app_type": 2,
      "client_app_mode": 1,
      "app_deployed": true,
      "saml": true,
      "auth_agent": null,
      "rdp_version": "V1",
      "auth_enabled": "true",
      "uuid_url": "ZgpmtAS0ORa2b0jF",
      "app_logo": "https://host.com/customer-logo/app_icon_<uuid_url>",
      "description": "This is the Email Server",
      "app_profile": 1,
      "host": "<uuid_url>.host.akamai-access.com",
      "data_agent": null,
      "orig_tls": "true",
      "origin_port": 443,
      "bookmark_url": "",
      "app_operational": 3,
      "resource": "apps",
      "name": "Primary Email Application",
      "modified_at": "2019-03-28T20:10:22.418270",
      "cert": null,
      "cname": "<uuid_url>.host.akamai-access.com",
      "status": 1,
      "wsfed": false,
      "oidc": false,
      "created_at": "2017-10-09T21:21:27.548211",
      "sites": [
        "skljgoSxoolsooD26Q-qQlGzjYRzuS"
      ],
      "wsfed_settings": [],
      "advanced_settings": {
        "mfa": "inherit",
        "rdp_initial_program": null,
        "hidden_app": "false",
        "force_mfa": "off",
        "login_timeout": "5",
        "remote_spark_audio": "true",
        "sticky_agent": "false",
        "https_sslv3": "false",
        "authenticated_server_conn_limit": "50",
        "idle_conn_step": "10",
        "idle_close_time_seconds": "1200",
        "logout_url": null,
        "keyed_keepalive_enable": "false",
        "idle_conn_floor": "50",
        "cors_origin_list": "unbounded",
        "health_check_http_host_header": "",
        "session_sticky_cookie_maxage": "0",
        "ssh_audit_enabled": "false",
        "app_auth_domain": null,
        "edge_authentication_enabled": "false",
        "sso": "true",
        "preauth_enforce_url": "",
        "remote_spark_mapClipboard": "on",
        "keepalive_enable": "true",
        "health_check_interval": "30000",
        "idle_conn_ceil": "75",
        "proxy_buffer_size_kb": null,
        "forward_ticket_granting_ticket": "false",
        "websocket_enabled": "false",
        "internal_host_port": "0",
        "authenticated_server_request_limit": "100",
        "g2o_nonce": null,
        "server_request_burst": "100",
        "keepalive_connection_pool": "50",
        "keytab": "",
        "saas_enabled": "false",
        "health_check_http_url": "/",
        "cors_max_age": "86400",
        "inject_ajax_javascript": "off",
        "spdy_enabled": "true",
        "health_check_fall": "3",
        "anonymous_server_conn_limit": "50",
        "client_cert_auth": "false",
        "remote_spark_mapPrinter": "true",
        "domain_exception_list": "",
        "idp_idle_expiry": null,
        "kerberos_negotiate_once": "off",
        "proxy_disable_clipboard": "false",
        "external_cookie_domain": null,
        "app_server_read_timeout": "60",
        "load_balancing_metric": "round-robin",
        "keepalive_timeout": "3",
        "app_location": null,
        "health_check_http_version": "1.1",
        "offload_onpremise_traffic": "false",
        "session_sticky": "false",
        "sentry_redirect_401": "off",
        "remote_spark_disk": "LOCALSHARE",
        "refresh_sticky_cookie": "on",
        "ignore_cname_resolution": "false",
        "user_name": null,
        "http_only_cookie": "true",
        "login_url": null,
        "anonymous_server_request_limit": "100",
        "session_sticky_server_cookie": null,
        "request_body_rewrite": "false",
        "sla_object_url": "____spx/iontestpage",
        "pass_phrase": null,
        "edge_cookie_key": "",
        "g2o_key": null,
        "request_parameters": null,
        "wildcard_internal_hostname": "false",
        "logging_enabled": "true",
        "server_cert_validate": "true",
        "rate_limit": "on",
        "rdp_tls1": "false",
        "health_check_timeout": "50000",
        "health_check_rise": "2",
        "g2o_enabled": "false",
        "internal_hostname": "",
        "app_auth": "none",
        "cors_support_credential": "on",
        "cors_header_list": "unbounded",
        "acceleration": "false",
        "remote_spark_mapDisk": "true",
        "hsts_age": "15552000",
        "remote_spark_printer": "LOCALPRINTER",
        "allow_cors": "false",
        "rdp_legacy_mode": "false",
        "cors_method_list": "unbounded",
        "private_key": null,
        "app_cookie_domain": null,
        "service_principle_name": null,
        "app_client_cert_auth": "false",
        "cookie_domain": "",
        "remote_spark_recording": "false",
        "idp_max_expiry": null,
        "wapp_auth": "form",
        "health_check_type": "0",
        "client_cert_user_param": "",
        "rdp_remote_apps": [],
        "custom_headers": []
      },
      "app_category": {
        "name": "Communications",
        "uuid_url": "CNasdlkfjlkasdhftZjKIFA"
      },
      "resource_status": {
        "host_reachable": false,
        "directories_status": 2,
        "origin_host_status": 4,
        "cname_dns_status": 1,
        "data_agent_status": 1,
        "cert_status": 1,
        "host_dns_status": 4,
        "internal_host_status": 1,
        "dialin_server_status": 4,
        "pop_status": 2
      },
      "oidc_settings": {},
      "idp": {
        "idp_id": "aMEgMEgeToipiytpeP1u5kLg",
        "client_cert_auth": "false",
        "client_cert_user_param": "",
        "name": "Pri-SAML-IDP",
        "type": 2
      },
      "resource_uri": {
        "directories": "/api/v1/apps/uuid_url/directories/",
        "sites": "/api/v1/apps/<uuid_url>/sites",
        "pop": "/api/v1/pops/<pop>",
        "href": "/api/v1/apps/<uuid_url>",
        "groups": "/api/v1/apps/<uuid_url>/groups/",
        "services": "/api/v1/apps/<uuid_url>/services/"
      },
      "saml_settings": [
        {
          "sp": {
            "dst_url": "",
            "encr_cert": "-----BEGIN CERTIFICATE-----\n ... \n-----END CERTIFICATE-----",
            "default_relay_state": "",
            "encr_algo": "aes256-cbc",
            "req_verify": false,
            "slo_req_verify": false,
            "slo_bind": "redirect",
            "entity_id": "https://host.net/saml/sp/response",
            "resp_encr": false,
            "req_bind": "redirect",
            "sign_cert": "-----BEGIN CERTIFICATE-----\n ... \n-----END CERTIFICATE-----",
            "logout_bind": "post",
            "slo_url": "",
            "force_auth": true,
            "acs_url": "https://host.net/saml/sp/response",
            "metadata": "<?xml version=\"1.0\"?>\n<md:EntityDescriptor> ... </md:EntityDescriptor>"
          },
          "idp": {
            "self_signed": true,
            "ecp_resp_signature": false,
            "slo_url": "https://host.net/saml/idp/slo",
            "entity_id": "https://host.net/saml/idp/sso",
            "resp_bind": "post",
            "sign_cert": "-----BEGIN CERTIFICATE-----\n ... \n-----END CERTIFICATE-----\n",
            "sign_algo": "SHA1",
            "ecp_enable": false,
            "metadata": "<?xml version=\"1.0\"?>\n<md:EntityDescriptor> ... </md:EntityDescriptor>"
          },
          "subject": {
            "attr_source": "user.email",
            "src": "user.userPrincipleName",
            "fmt": "unspecified"
          },
          "attrmap": [
            {
              "src": "user.firstName",
              "fmt": "unspecified",
              "name": "FirstName",
              "fname": ""
            },
            {
              "src": "user.email",
              "fmt": "basic",
              "name": "Email",
              "fname": ""
            },
            {
              "src": "user.lastName",
              "fmt": "basic",
              "name": "LastName",
              "fname": ""
            }
          ]
        }
      ],
      "servers": [
        {
          "origin_host": "192.0.2.14",
          "orig_tls": true,
          "origin_port": 22,
          "origin_protocol": "ssh"
        }
      ],
      "services": [
        {
          "name": "Acceleration",
          "uuid_url": "YqQlGzjYRzuSX04"
        },
        {
          "name": "Access Control",
          "uuid_url": "RzuSX04c8CECtw15"
        }
      ],
      "agents": [
        {
          "compatible": true,
          "name": "Email-App-Connector",
          "uuid_url": "aldTFght_SfoolsooD26Q"
        },
        {
          "compatible": true,
          "name": "App2-Connector",
          "uuid_url": "askljgoSxmQnkfJ1fozTA"
        }
      ],
      "directories": [
        {
          "user_count": 29584,
          "type": 1,
          "name": "Company-Primary-AD",
          "uuid_url": "_tvruiywwiyipwgvs8rw"
        }
      ]
    }
  ]
}