{
  "meta": {
    "limit": 5,
    "next": "?limit=5&offset=10",
    "offset": 5,
    "previous": "?limit=5&offset=0",
    "total_count": 126
  },
  "objects": [
    {
      "enable_mfa": "inherit",
      "resource": "appidp",
      "uuid_url": "HQZpYw1nRlucFcQLvLG2yQ",
      "app": {
        "app_uuid_url": "1eujJKCSSuOEkBy5Q7hEAw",
        "name": "JIRA-SAML"
      },
      "idp": {
        "idp_uuid_url": "lMEgMEgeTxKlRaaP1u5kLg",
        "name": "Company-SAML-IDP"
      },
      "resource_uri": {
        "apps": "/api/v1/apps/1eujJKCSSuOEkBy5Q7hEAw",
        "href": "/api/v1/appidp/HQZpYw1nRlucFcQLvLG2yQ",
        "idp": "/api/v1/idp/lMEgMEgeTxKlRaaP1u5kLg"
      }
    },
    {
      "enable_mfa": "inherit",
      "resource": "appidp",
      "uuid_url": "JCOqMBfWTR-M_kXcd8y1Cg",
      "app": {
        "app_uuid_url": "vgn_sEBdQ6arcR-D4tZW1Q",
        "name": "This Company HTTP App"
      },
      "idp": {
        "idp_uuid_url": "fsGXD1aYQyCPjqi48kK6nQ",
        "name": "Company-SALM-IDP"
      },
      "resource_uri": {
        "apps": "/api/v1/apps/vgn_sEBdQ6arcR-D4tZW1Q",
        "href": "/api/v1/appidp/JCOqMBfWTR-M_kXcd8y1Cg",
        "idp": "/api/v1/idp/fsGXD1aYQyCPjqi48kK6nQ"
      }
    }
  ]
}