{
  "accountId": "act_A-CCT3456",
  "currentSort": "hostname:a",
  "defaultSort": "hostname:a",
  "availableSort": [
    "hostname:a",
    "hostname:d"
  ],
  "hostnames": {
    "nextLink": "/papi/v1/hostnames?offset=3&limit=3",
    "previousLink": "/papi/v1/hostnames?offset=0&limit=3",
    "totalItems": 17,
    "currentItemCount": 3,
    "items": [
      {
        "contractId": "ctr_K-0N7RAK7",
        "groupId": "grp_15225",
        "propertyId": "prp_123345",
        "propertyName": "example.com",
        "cnameFrom": "www.example.com",
        "stagingCertType": "CPS_MANAGED",
        "stagingEdgeHostnameId": "ehn_895822",
        "stagingCnameType": "EDGE_HOSTNAME",
        "stagingCnameTo": "www.example.com.edgekey.net",
        "propertyType": "TRADITIONAL"
      },
      {
        "contractId": "ctr_K-0N7RAK71",
        "groupId": "grp_15225",
        "propertyId": "prp_123424",
        "propertyName": "example2.com",
        "cnameFrom": "www.example2.com",
        "productionCertType": "DEFAULT",
        "productionEdgeHostnameId": "ehn_895825",
        "productionCnameType": "EDGE_HOSTNAME",
        "productionCnameTo": "www.example2.com.edgekey.net",
        "propertyType": "TRADITIONAL"
      },
      {
        "contractId": "ctr_C-0N7RAC71",
        "groupId": "grp_15225",
        "propertyId": "prp_123424",
        "propertyName": "example3.com",
        "cnameFrom": "www.example3.com",
        "productionCertType": "DEFAULT",
        "productionEdgeHostnameId": "ehn_895833",
        "productionCnameType": "EDGE_HOSTNAME",
        "productionCnameTo": "www.example3.com.edgekey.net",
        "propertyType": "HOSTNAME_BUCKET"
      }
    ]
  }
}